simulation/qsim/UART_5.msim.vcd
$comment
	File created using the following command:
		vcd file UART_5.msim.vcd -direction
$end
$date
	Thu May 04 11:07:58 2023
$end
$version
	ModelSim Version 10.1d
$end
$timescale
	1ps
$end
$scope module UART_5_vlg_vec_tst $end
$var reg 1 ! BTN $end
$var reg 1 " CLK $end
$var reg 8 # DATO [7:0] $end
$var reg 2 $ dir [1:0] $end
$var reg 1 % esc $end
$var reg 1 & lee $end
$var reg 1 ' RX_LINE $end
$var wire 1 ( LEDS [31] $end
$var wire 1 ) LEDS [30] $end
$var wire 1 * LEDS [29] $end
$var wire 1 + LEDS [28] $end
$var wire 1 , LEDS [27] $end
$var wire 1 - LEDS [26] $end
$var wire 1 . LEDS [25] $end
$var wire 1 / LEDS [24] $end
$var wire 1 0 LEDS [23] $end
$var wire 1 1 LEDS [22] $end
$var wire 1 2 LEDS [21] $end
$var wire 1 3 LEDS [20] $end
$var wire 1 4 LEDS [19] $end
$var wire 1 5 LEDS [18] $end
$var wire 1 6 LEDS [17] $end
$var wire 1 7 LEDS [16] $end
$var wire 1 8 LEDS [15] $end
$var wire 1 9 LEDS [14] $end
$var wire 1 : LEDS [13] $end
$var wire 1 ; LEDS [12] $end
$var wire 1 < LEDS [11] $end
$var wire 1 = LEDS [10] $end
$var wire 1 > LEDS [9] $end
$var wire 1 ? LEDS [8] $end
$var wire 1 @ LEDS [7] $end
$var wire 1 A LEDS [6] $end
$var wire 1 B LEDS [5] $end
$var wire 1 C LEDS [4] $end
$var wire 1 D LEDS [3] $end
$var wire 1 E LEDS [2] $end
$var wire 1 F LEDS [1] $end
$var wire 1 G LEDS [0] $end
$var wire 1 H TX_LINE $end
$var wire 1 I sampler $end
$scope module i1 $end
$var wire 1 J gnd $end
$var wire 1 K vcc $end
$var wire 1 L unknown $end
$var tri1 1 M devclrn $end
$var tri1 1 N devpor $end
$var tri1 1 O devoe $end
$var wire 1 P UART_TX_instance|clkCount[3]~19_combout $end
$var wire 1 Q UART_TX_instance|clkCount[6]~25_combout $end
$var wire 1 R UART_TX_instance|clkCount[8]~29_combout $end
$var wire 1 S UART_RX_instance|Add0~0_combout $end
$var wire 1 T UART_RX_instance|Add0~4_combout $end
$var wire 1 U UART_TX_instance|Mux0~2_combout $end
$var wire 1 V UART_TX_instance|Mux0~3_combout $end
$var wire 1 W mem~32_regout $end
$var wire 1 X mem~33_regout $end
$var wire 1 Y mem~17_regout $end
$var wire 1 Z mem~50_combout $end
$var wire 1 [ mem~34_regout $end
$var wire 1 \ mem~43_regout $end
$var wire 1 ] mem~28_regout $end
$var wire 1 ^ mem~20_regout $end
$var wire 1 _ mem~56_combout $end
$var wire 1 ` mem~45_regout $end
$var wire 1 a UART_TX_instance|Selector16~1_combout $end
$var wire 1 b UART_RX_instance|Selector14~2_combout $end
$var wire 1 c UART_TX_instance|data[3]~feeder_combout $end
$var wire 1 d UART_TX_instance|data[4]~feeder_combout $end
$var wire 1 e mem~32feeder_combout $end
$var wire 1 f data_TX[0]~feeder_combout $end
$var wire 1 g data_TX[3]~feeder_combout $end
$var wire 1 h data_TX[4]~feeder_combout $end
$var wire 1 i data_TX[7]~feeder_combout $end
$var wire 1 j CLK~combout $end
$var wire 1 k CLK~clkctrl_outclk $end
$var wire 1 l BTN~combout $end
$var wire 1 m UART_TX_instance|clkCount[0]~13_combout $end
$var wire 1 n ~GND~combout $end
$var wire 1 o UART_TX_instance|Selector19~0_combout $end
$var wire 1 p UART_TX_instance|state.s_idle~regout $end
$var wire 1 q UART_TX_instance|clkCount[0]~14 $end
$var wire 1 r UART_TX_instance|clkCount[1]~15_combout $end
$var wire 1 s UART_TX_instance|clkCount[1]~16 $end
$var wire 1 t UART_TX_instance|clkCount[2]~17_combout $end
$var wire 1 u UART_TX_instance|clkCount[2]~18 $end
$var wire 1 v UART_TX_instance|clkCount[3]~20 $end
$var wire 1 w UART_TX_instance|clkCount[4]~21_combout $end
$var wire 1 x UART_TX_instance|clkCount[4]~22 $end
$var wire 1 y UART_TX_instance|clkCount[5]~23_combout $end
$var wire 1 z UART_TX_instance|clkCount[5]~24 $end
$var wire 1 { UART_TX_instance|clkCount[6]~26 $end
$var wire 1 | UART_TX_instance|clkCount[7]~27_combout $end
$var wire 1 } UART_TX_instance|clkCount[7]~28 $end
$var wire 1 ~ UART_TX_instance|clkCount[8]~30 $end
$var wire 1 !! UART_TX_instance|clkCount[9]~31_combout $end
$var wire 1 "! UART_TX_instance|clkCount[9]~32 $end
$var wire 1 #! UART_TX_instance|clkCount[10]~34 $end
$var wire 1 $! UART_TX_instance|clkCount[11]~35_combout $end
$var wire 1 %! UART_TX_instance|clkCount[11]~36 $end
$var wire 1 &! UART_TX_instance|clkCount[12]~37_combout $end
$var wire 1 '! UART_TX_instance|clkCount[10]~33_combout $end
$var wire 1 (! UART_TX_instance|LessThan1~0_combout $end
$var wire 1 )! UART_TX_instance|LessThan1~1_combout $end
$var wire 1 *! UART_TX_instance|LessThan1~2_combout $end
$var wire 1 +! UART_TX_instance|LessThan1~4_combout $end
$var wire 1 ,! UART_TX_instance|LessThan1~3_combout $end
$var wire 1 -! UART_TX_instance|Selector18~0_combout $end
$var wire 1 .! UART_TX_instance|Selector18~1_combout $end
$var wire 1 /! UART_TX_instance|Selector18~2_combout $end
$var wire 1 0! UART_TX_instance|state.s_stopBit~2_combout $end
$var wire 1 1! UART_TX_instance|state.s_stopBit~3_combout $end
$var wire 1 2! UART_TX_instance|state.s_stopBit~regout $end
$var wire 1 3! UART_TX_instance|Selector1~0_combout $end
$var wire 1 4! UART_TX_instance|Selector1~1_combout $end
$var wire 1 5! UART_TX_instance|TX_ACTIVE~regout $end
$var wire 1 6! process_0~0_combout $end
$var wire 1 7! dataValid_TX~feeder_combout $end
$var wire 1 8! dataValid_TX~regout $end
$var wire 1 9! UART_TX_instance|Selector20~0_combout $end
$var wire 1 :! UART_TX_instance|state.s_startBit~regout $end
$var wire 1 ;! UART_TX_instance|Selector16~0_combout $end
$var wire 1 <! UART_TX_instance|Selector16~2_combout $end
$var wire 1 =! UART_TX_instance|Selector16~3_combout $end
$var wire 1 >! UART_TX_instance|Selector21~0_combout $end
$var wire 1 ?! UART_TX_instance|state.s_dataBits~regout $end
$var wire 1 @! UART_TX_instance|Selector0~1_combout $end
$var wire 1 A! UART_TX_instance|Selector17~0_combout $end
$var wire 1 B! UART_TX_instance|Selector17~1_combout $end
$var wire 1 C! UART_TX_instance|Selector17~2_combout $end
$var wire 1 D! UART_TX_instance|Selector17~3_combout $end
$var wire 1 E! UART_TX_instance|data[1]~0_combout $end
$var wire 1 F! UART_TX_instance|Mux0~0_combout $end
$var wire 1 G! UART_TX_instance|Mux0~1_combout $end
$var wire 1 H! UART_TX_instance|Selector0~0_combout $end
$var wire 1 I! UART_TX_instance|Selector0~2_combout $end
$var wire 1 J! UART_TX_instance|TX_LINE~regout $end
$var wire 1 K! RX_LINE~combout $end
$var wire 1 L! UART_RX_instance|clkCount[9]~3_combout $end
$var wire 1 M! UART_RX_instance|clkCount[9]~4_combout $end
$var wire 1 N! UART_RX_instance|clkCount[2]~5_combout $end
$var wire 1 O! UART_RX_instance|Add0~1 $end
$var wire 1 P! UART_RX_instance|Add0~3 $end
$var wire 1 Q! UART_RX_instance|Add0~5 $end
$var wire 1 R! UART_RX_instance|Add0~6_combout $end
$var wire 1 S! UART_RX_instance|clkCount[3]~6_combout $end
$var wire 1 T! UART_RX_instance|Add0~7 $end
$var wire 1 U! UART_RX_instance|Add0~8_combout $end
$var wire 1 V! UART_RX_instance|Add0~29_combout $end
$var wire 1 W! UART_RX_instance|Add0~9 $end
$var wire 1 X! UART_RX_instance|Add0~10_combout $end
$var wire 1 Y! UART_RX_instance|clkCount[5]~7_combout $end
$var wire 1 Z! UART_RX_instance|Add0~11 $end
$var wire 1 [! UART_RX_instance|Add0~12_combout $end
$var wire 1 \! UART_RX_instance|Add0~30_combout $end
$var wire 1 ]! UART_RX_instance|LessThan1~0_combout $end
$var wire 1 ^! UART_RX_instance|LessThan1~1_combout $end
$var wire 1 _! UART_RX_instance|Decoder0~0_combout $end
$var wire 1 `! UART_RX_instance|Decoder0~1_combout $end
$var wire 1 a! UART_RX_instance|Selector14~0_combout $end
$var wire 1 b! UART_RX_instance|Add0~13 $end
$var wire 1 c! UART_RX_instance|Add0~14_combout $end
$var wire 1 d! UART_RX_instance|Add0~31_combout $end
$var wire 1 e! UART_RX_instance|Add0~15 $end
$var wire 1 f! UART_RX_instance|Add0~16_combout $end
$var wire 1 g! UART_RX_instance|Add0~32_combout $end
$var wire 1 h! UART_RX_instance|LessThan1~2_combout $end
$var wire 1 i! UART_RX_instance|LessThan1~3_combout $end
$var wire 1 j! UART_RX_instance|Selector14~1_combout $end
$var wire 1 k! UART_RX_instance|Selector14~3_combout $end
$var wire 1 l! UART_RX_instance|Selector16~0_combout $end
$var wire 1 m! UART_RX_instance|Selector16~1_combout $end
$var wire 1 n! UART_RX_instance|Selector19~1_combout $end
$var wire 1 o! UART_RX_instance|Selector19~0_combout $end
$var wire 1 p! UART_RX_instance|Selector19~2_combout $end
$var wire 1 q! UART_RX_instance|state.s_dataBits~regout $end
$var wire 1 r! UART_RX_instance|clkCount[9]~0_combout $end
$var wire 1 s! UART_RX_instance|clkCount[9]~1_combout $end
$var wire 1 t! UART_RX_instance|Add0~27_combout $end
$var wire 1 u! UART_RX_instance|Add0~2_combout $end
$var wire 1 v! UART_RX_instance|Add0~28_combout $end
$var wire 1 w! UART_RX_instance|Equal0~0_combout $end
$var wire 1 x! UART_RX_instance|Equal0~1_combout $end
$var wire 1 y! UART_RX_instance|Equal0~2_combout $end
$var wire 1 z! UART_RX_instance|Equal0~3_combout $end
$var wire 1 {! UART_RX_instance|clkCount[9]~2_combout $end
$var wire 1 |! UART_RX_instance|Add0~17 $end
$var wire 1 }! UART_RX_instance|Add0~18_combout $end
$var wire 1 ~! UART_RX_instance|clkCount[9]~9_combout $end
$var wire 1 !" UART_RX_instance|Add0~19 $end
$var wire 1 "" UART_RX_instance|Add0~20_combout $end
$var wire 1 #" UART_RX_instance|Add0~33_combout $end
$var wire 1 $" UART_RX_instance|Add0~21 $end
$var wire 1 %" UART_RX_instance|Add0~22_combout $end
$var wire 1 &" UART_RX_instance|clkCount[11]~8_combout $end
$var wire 1 '" UART_RX_instance|Add0~23 $end
$var wire 1 (" UART_RX_instance|Add0~24_combout $end
$var wire 1 )" UART_RX_instance|Add0~26_combout $end
$var wire 1 *" UART_RX_instance|Decoder0~9_combout $end
$var wire 1 +" UART_RX_instance|state.s_stopBit~0_combout $end
$var wire 1 ," UART_RX_instance|state.s_stopBit~regout $end
$var wire 1 -" UART_RX_instance|Selector17~0_combout $end
$var wire 1 ." UART_RX_instance|Selector17~1_combout $end
$var wire 1 /" UART_RX_instance|state.s_idle~regout $end
$var wire 1 0" UART_RX_instance|Selector18~0_combout $end
$var wire 1 1" UART_RX_instance|state.s_startBit~regout $end
$var wire 1 2" UART_RX_instance|Selector15~0_combout $end
$var wire 1 3" UART_RX_instance|Selector15~1_combout $end
$var wire 1 4" UART_RX_instance|Decoder0~2_combout $end
$var wire 1 5" UART_RX_instance|data[0]~0_combout $end
$var wire 1 6" lee~combout $end
$var wire 1 7" esc~combout $end
$var wire 1 8" mem~67_combout $end
$var wire 1 9" mem~40_regout $end
$var wire 1 :" mem~65_combout $end
$var wire 1 ;" mem~24_regout $end
$var wire 1 <" mem~16feeder_combout $end
$var wire 1 =" mem~66_combout $end
$var wire 1 >" mem~16_regout $end
$var wire 1 ?" mem~48_combout $end
$var wire 1 @" mem~49_combout $end
$var wire 1 A" Mux33~0_combout $end
$var wire 1 B" LEDS[0]~reg0_regout $end
$var wire 1 C" UART_RX_instance|Decoder0~3_combout $end
$var wire 1 D" UART_RX_instance|data[1]~1_combout $end
$var wire 1 E" mem~25_regout $end
$var wire 1 F" mem~41_regout $end
$var wire 1 G" mem~51_combout $end
$var wire 1 H" Mux32~0_combout $end
$var wire 1 I" LEDS[1]~reg0_regout $end
$var wire 1 J" UART_RX_instance|Decoder0~4_combout $end
$var wire 1 K" UART_RX_instance|data[2]~2_combout $end
$var wire 1 L" mem~42_regout $end
$var wire 1 M" mem~26_regout $end
$var wire 1 N" mem~18_regout $end
$var wire 1 O" mem~52_combout $end
$var wire 1 P" mem~53_combout $end
$var wire 1 Q" Mux31~0_combout $end
$var wire 1 R" LEDS[2]~reg0_regout $end
$var wire 1 S" UART_RX_instance|Decoder0~5_combout $end
$var wire 1 T" UART_RX_instance|data[3]~3_combout $end
$var wire 1 U" mem~27_regout $end
$var wire 1 V" mem~64_combout $end
$var wire 1 W" mem~35_regout $end
$var wire 1 X" mem~19_regout $end
$var wire 1 Y" mem~54_combout $end
$var wire 1 Z" mem~55_combout $end
$var wire 1 [" Mux30~0_combout $end
$var wire 1 \" LEDS[3]~reg0_regout $end
$var wire 1 ]" UART_RX_instance|Decoder0~6_combout $end
$var wire 1 ^" UART_RX_instance|data[4]~4_combout $end
$var wire 1 _" mem~44_regout $end
$var wire 1 `" mem~36_regout $end
$var wire 1 a" mem~57_combout $end
$var wire 1 b" Mux29~0_combout $end
$var wire 1 c" LEDS[4]~reg0_regout $end
$var wire 1 d" UART_RX_instance|Decoder0~7_combout $end
$var wire 1 e" UART_RX_instance|data[5]~5_combout $end
$var wire 1 f" mem~29_regout $end
$var wire 1 g" mem~37_regout $end
$var wire 1 h" mem~21_regout $end
$var wire 1 i" mem~58_combout $end
$var wire 1 j" mem~59_combout $end
$var wire 1 k" Mux28~0_combout $end
$var wire 1 l" LEDS[5]~reg0_regout $end
$var wire 1 m" UART_RX_instance|Decoder0~8_combout $end
$var wire 1 n" UART_RX_instance|data[6]~6_combout $end
$var wire 1 o" mem~46_regout $end
$var wire 1 p" mem~38_regout $end
$var wire 1 q" mem~30_regout $end
$var wire 1 r" mem~22feeder_combout $end
$var wire 1 s" mem~22_regout $end
$var wire 1 t" mem~60_combout $end
$var wire 1 u" mem~61_combout $end
$var wire 1 v" Mux27~0_combout $end
$var wire 1 w" LEDS[6]~reg0_regout $end
$var wire 1 x" UART_RX_instance|data[7]~7_combout $end
$var wire 1 y" mem~31feeder_combout $end
$var wire 1 z" mem~31_regout $end
$var wire 1 {" mem~47_regout $end
$var wire 1 |" mem~39_regout $end
$var wire 1 }" mem~23_regout $end
$var wire 1 ~" mem~62_combout $end
$var wire 1 !# mem~63_combout $end
$var wire 1 "# Mux26~0_combout $end
$var wire 1 ## LEDS[7]~reg0_regout $end
$var wire 1 $# Mux25~0_combout $end
$var wire 1 %# LEDS[8]~reg0_regout $end
$var wire 1 &# Mux24~0_combout $end
$var wire 1 '# LEDS[9]~reg0_regout $end
$var wire 1 (# Mux23~0_combout $end
$var wire 1 )# LEDS[10]~reg0_regout $end
$var wire 1 *# Mux22~0_combout $end
$var wire 1 +# LEDS[11]~reg0_regout $end
$var wire 1 ,# Mux21~0_combout $end
$var wire 1 -# LEDS[12]~reg0_regout $end
$var wire 1 .# Mux20~0_combout $end
$var wire 1 /# LEDS[13]~reg0_regout $end
$var wire 1 0# Mux19~0_combout $end
$var wire 1 1# LEDS[14]~reg0_regout $end
$var wire 1 2# Mux18~0_combout $end
$var wire 1 3# LEDS[15]~reg0_regout $end
$var wire 1 4# Mux17~0_combout $end
$var wire 1 5# LEDS[16]~reg0_regout $end
$var wire 1 6# Mux16~0_combout $end
$var wire 1 7# LEDS[17]~reg0_regout $end
$var wire 1 8# Mux15~0_combout $end
$var wire 1 9# LEDS[18]~reg0_regout $end
$var wire 1 :# Mux14~0_combout $end
$var wire 1 ;# LEDS[19]~reg0_regout $end
$var wire 1 <# Mux13~0_combout $end
$var wire 1 =# LEDS[20]~reg0_regout $end
$var wire 1 ># Mux12~0_combout $end
$var wire 1 ?# LEDS[21]~reg0_regout $end
$var wire 1 @# Mux11~0_combout $end
$var wire 1 A# LEDS[22]~reg0_regout $end
$var wire 1 B# Mux10~0_combout $end
$var wire 1 C# LEDS[23]~reg0_regout $end
$var wire 1 D# Mux9~0_combout $end
$var wire 1 E# LEDS[24]~reg0_regout $end
$var wire 1 F# Mux8~0_combout $end
$var wire 1 G# LEDS[25]~reg0_regout $end
$var wire 1 H# Mux7~0_combout $end
$var wire 1 I# LEDS[26]~reg0_regout $end
$var wire 1 J# Mux6~0_combout $end
$var wire 1 K# LEDS[27]~reg0_regout $end
$var wire 1 L# Mux5~0_combout $end
$var wire 1 M# LEDS[28]~reg0_regout $end
$var wire 1 N# Mux4~0_combout $end
$var wire 1 O# LEDS[29]~reg0_regout $end
$var wire 1 P# Mux3~0_combout $end
$var wire 1 Q# LEDS[30]~reg0_regout $end
$var wire 1 R# Mux2~0_combout $end
$var wire 1 S# LEDS[31]~reg0_regout $end
$var wire 1 T# UART_TX_instance|clkCount [12] $end
$var wire 1 U# UART_TX_instance|clkCount [11] $end
$var wire 1 V# UART_TX_instance|clkCount [10] $end
$var wire 1 W# UART_TX_instance|clkCount [9] $end
$var wire 1 X# UART_TX_instance|clkCount [8] $end
$var wire 1 Y# UART_TX_instance|clkCount [7] $end
$var wire 1 Z# UART_TX_instance|clkCount [6] $end
$var wire 1 [# UART_TX_instance|clkCount [5] $end
$var wire 1 \# UART_TX_instance|clkCount [4] $end
$var wire 1 ]# UART_TX_instance|clkCount [3] $end
$var wire 1 ^# UART_TX_instance|clkCount [2] $end
$var wire 1 _# UART_TX_instance|clkCount [1] $end
$var wire 1 `# UART_TX_instance|clkCount [0] $end
$var wire 1 a# DATO~combout [7] $end
$var wire 1 b# DATO~combout [6] $end
$var wire 1 c# DATO~combout [5] $end
$var wire 1 d# DATO~combout [4] $end
$var wire 1 e# DATO~combout [3] $end
$var wire 1 f# DATO~combout [2] $end
$var wire 1 g# DATO~combout [1] $end
$var wire 1 h# DATO~combout [0] $end
$var wire 1 i# UART_RX_instance|dataIndex [2] $end
$var wire 1 j# UART_RX_instance|dataIndex [1] $end
$var wire 1 k# UART_RX_instance|dataIndex [0] $end
$var wire 1 l# UART_RX_instance|clkCount [12] $end
$var wire 1 m# UART_RX_instance|clkCount [11] $end
$var wire 1 n# UART_RX_instance|clkCount [10] $end
$var wire 1 o# UART_RX_instance|clkCount [9] $end
$var wire 1 p# UART_RX_instance|clkCount [8] $end
$var wire 1 q# UART_RX_instance|clkCount [7] $end
$var wire 1 r# UART_RX_instance|clkCount [6] $end
$var wire 1 s# UART_RX_instance|clkCount [5] $end
$var wire 1 t# UART_RX_instance|clkCount [4] $end
$var wire 1 u# UART_RX_instance|clkCount [3] $end
$var wire 1 v# UART_RX_instance|clkCount [2] $end
$var wire 1 w# UART_RX_instance|clkCount [1] $end
$var wire 1 x# UART_RX_instance|clkCount [0] $end
$var wire 1 y# UART_TX_instance|data [7] $end
$var wire 1 z# UART_TX_instance|data [6] $end
$var wire 1 {# UART_TX_instance|data [5] $end
$var wire 1 |# UART_TX_instance|data [4] $end
$var wire 1 }# UART_TX_instance|data [3] $end
$var wire 1 ~# UART_TX_instance|data [2] $end
$var wire 1 !$ UART_TX_instance|data [1] $end
$var wire 1 "$ UART_TX_instance|data [0] $end
$var wire 1 #$ data_TX [7] $end
$var wire 1 $$ data_TX [6] $end
$var wire 1 %$ data_TX [5] $end
$var wire 1 &$ data_TX [4] $end
$var wire 1 '$ data_TX [3] $end
$var wire 1 ($ data_TX [2] $end
$var wire 1 )$ data_TX [1] $end
$var wire 1 *$ data_TX [0] $end
$var wire 1 +$ UART_TX_instance|dataIndex [2] $end
$var wire 1 ,$ UART_TX_instance|dataIndex [1] $end
$var wire 1 -$ UART_TX_instance|dataIndex [0] $end
$var wire 1 .$ dir~combout [1] $end
$var wire 1 /$ dir~combout [0] $end
$var wire 1 0$ UART_RX_instance|data [7] $end
$var wire 1 1$ UART_RX_instance|data [6] $end
$var wire 1 2$ UART_RX_instance|data [5] $end
$var wire 1 3$ UART_RX_instance|data [4] $end
$var wire 1 4$ UART_RX_instance|data [3] $end
$var wire 1 5$ UART_RX_instance|data [2] $end
$var wire 1 6$ UART_RX_instance|data [1] $end
$var wire 1 7$ UART_RX_instance|data [0] $end
$upscope $end
$upscope $end
$enddefinitions $end
#0
$dumpvars
0!
0"
b0 #
b0 $
1%
0&
0'
0G
0F
0E
0D
0C
0B
0A
0@
0?
0>
0=
0<
0;
0:
09
08
07
06
05
04
03
02
01
00
0/
0.
0-
0,
0+
0*
0)
0(
0H
xI
0J
1K
xL
1M
1N
1O
0P
0Q
0R
1S
0T
0U
0V
0W
0X
0Y
0Z
0[
0\
0]
0^
0_
0`
0a
0b
0c
0d
0e
0f
0g
0h
0i
0j
0k
0l
1m
0n
0o
0p
0q
0r
1s
0t
0u
1v
0w
0x
0y
1z
0{
0|
1}
0~
0!!
1"!
0#!
0$!
1%!
0&!
0'!
1(!
1)!
1*!
0+!
1,!
0-!
0.!
0/!
00!
01!
02!
03!
04!
05!
16!
17!
08!
09!
0:!
0;!
0<!
0=!
0>!
0?!
0@!
0A!
0B!
0C!
0D!
0E!
0F!
0G!
0H!
1I!
0J!
0K!
0L!
1M!
0N!
0O!
1P!
0Q!
0R!
0S!
1T!
0U!
0V!
0W!
0X!
0Y!
1Z!
0[!
0\!
1]!
1^!
0_!
0`!
0a!
0b!
0c!
0d!
1e!
0f!
0g!
1h!
1i!
0j!
0k!
0l!
0m!
0n!
0o!
0p!
0q!
0r!
0s!
0t!
0u!
0v!
1w!
0x!
0y!
0z!
0{!
0|!
0}!
0~!
1!"
0""
0#"
0$"
0%"
0&"
1'"
0("
0)"
0*"
0+"
0,"
0-"
1."
0/"
10"
01"
02"
03"
04"
05"
06"
17"
08"
09"
0:"
0;"
0<"
1="
0>"
0?"
0@"
0A"
0B"
0C"
0D"
0E"
0F"
0G"
0H"
0I"
0J"
0K"
0L"
0M"
0N"
0O"
0P"
0Q"
0R"
0S"
0T"
0U"
0V"
0W"
0X"
0Y"
0Z"
0["
0\"
0]"
0^"
0_"
0`"
0a"
0b"
0c"
0d"
0e"
0f"
0g"
0h"
0i"
0j"
0k"
0l"
0m"
0n"
0o"
0p"
0q"
0r"
0s"
0t"
0u"
0v"
0w"
0x"
0y"
0z"
0{"
0|"
0}"
0~"
0!#
0"#
0##
0$#
0%#
0&#
0'#
0(#
0)#
0*#
0+#
0,#
0-#
0.#
0/#
00#
01#
02#
03#
04#
05#
06#
07#
08#
09#
0:#
0;#
0<#
0=#
0>#
0?#
0@#
0A#
0B#
0C#
0D#
0E#
0F#
0G#
0H#
0I#
0J#
0K#
0L#
0M#
0N#
0O#
0P#
0Q#
0R#
0S#
0`#
0_#
0^#
0]#
0\#
0[#
0Z#
0Y#
0X#
0W#
0V#
0U#
0T#
0h#
0g#
0f#
0e#
0d#
0c#
0b#
0a#
0k#
0j#
0i#
0x#
0w#
0v#
0u#
0t#
0s#
0r#
0q#
0p#
0o#
0n#
0m#
0l#
0"$
0!$
0~#
0}#
0|#
0{#
0z#
0y#
0*$
0)$
0($
0'$
0&$
0%$
0$$
0#$
0-$
0,$
0+$
0/$
0.$
07$
06$
05$
04$
03$
02$
01$
00$
$end
#1000
1"
1j
1k
0I
11"
1/"
1J!
18!
1a!
0M!
1t!
1E!
19!
1o
1H
1j!
#2000
0"
0j
0k
1I
#3000
1"
1j
1k
0I
1x#
1:!
1p
0w!
1O!
0S
14!
0I!
0E!
1u!
0t!
1v!
#4000
0"
0j
0k
1I
#5000
1"
1j
1k
0I
1w#
0x#
0J!
15!
1`#
0P!
0u!
0O!
1S
06!
1q
0m
0H
1T
0v!
1P!
1u!
1t!
07!
1r
1N!
0T
1v!
0N!
#6000
0"
0j
0k
1I
#7000
1"
1j
1k
0I
1x#
08!
1_#
0`#
1O!
0S
0s
0r
0q
1m
0P!
0u!
0t!
1t
1s
1r
1T
0v!
0t
1N!
#8000
0"
0j
0k
1I
#9000
1"
1j
1k
0I
0w#
0x#
1v#
1`#
1w!
1P!
1u!
0O!
1S
1Q!
0T
1q
0m
0Q!
1T
1v!
0u!
1t!
1R!
0N!
0s
0r
0R!
1N!
0v!
1S!
1t
0S!
#10000
0"
0j
0k
1I
#11000
1"
1j
1k
0I
1x#
1^#
0_#
0`#
0w!
1O!
0S
1u
0t
1s
1r
0q
1m
1u!
0t!
1P
0u
1t
0r
1v!
0P
#12000
0"
0j
0k
1I
#13000
1"
1j
1k
0I
1w#
0x#
1`#
0P!
0u!
0O!
1S
1q
0m
1Q!
0T
0v!
1P!
1u!
1t!
1r
1R!
0N!
0Q!
1T
1v!
1S!
0R!
1N!
0S!
#14000
0"
0j
0k
1I
#15000
1"
1j
1k
0I
1x#
1_#
0`#
0]!
1O!
0S
0s
0r
0q
1m
0P!
0u!
0t!
1u
0t
1s
1r
1Q!
0T
0v!
1P
0u
1t
1R!
0N!
0P
1S!
#16000
0"
0j
0k
1I
#17000
1"
1j
1k
0I
0w#
0x#
1u#
0v#
1`#
1w!
1P!
1u!
0O!
1S
0T!
0R!
0Q!
1T
0)!
1q
0m
0T
1v!
0u!
1t!
1U!
0S!
1T!
1R!
1N!
0s
0r
0N!
0v!
1V!
0U!
1S!
1u
0t
0V!
1P
#18000
0"
0j
0k
1I
#19000
1"
1j
1k
0I
1x#
0^#
0_#
0`#
1]#
0w!
1O!
0S
0u
1t
1s
1r
0q
1m
0v
0P
1u!
0t!
1v
1P
0t
0r
1w
1v!
0w
#20000
0"
0j
0k
1I
#21000
1"
1j
1k
0I
1w#
0x#
1`#
0P!
0u!
0O!
1S
1q
0m
1T
0v!
1P!
1u!
1t!
1r
1N!
0T
1v!
0N!
#22000
0"
0j
0k
1I
#23000
1"
1j
1k
0I
1x#
1_#
0`#
1O!
0S
0s
0r
0q
1m
0P!
0u!
0t!
1t
1s
1r
1T
0v!
0t
1N!
#24000
0"
0j
0k
1I
#25000
1'
1"
1K!
1j
1k
0I
0w#
0x#
1v#
1`#
1w!
1P!
1u!
0O!
1S
1Q!
0T
1q
0m
0Q!
1T
1v!
0u!
1t!
0T!
0R!
0N!
0s
0r
1T!
1R!
1N!
0v!
1U!
0S!
1t
0U!
1S!
1V!
0V!
#26000
0"
0j
0k
1I
#27000
1"
1j
1k
0I
1x#
1^#
0_#
0`#
0w!
1O!
0S
1u
0t
1s
1r
0q
1m
1u!
0t!
0v
0P
0u
1t
0r
1v!
1w
1v
1P
0w
#28000
0"
0j
0k
1I
#29000
1"
1j
1k
0I
1w#
0x#
1`#
0P!
0u!
0O!
1S
1q
0m
1Q!
0T
0v!
1P!
1u!
1t!
1r
0T!
0R!
0N!
0Q!
1T
1v!
1U!
0S!
1T!
1R!
1N!
1V!
0U!
1S!
0V!
#30000
0"
0j
0k
1I
#31000
1"
1j
1k
0I
1x#
1_#
0`#
1O!
0S
0s
0r
0q
1m
0P!
0u!
0t!
1u
0t
1s
1r
1Q!
0T
0v!
0v
0P
0u
1t
0T!
0R!
0N!
1w
1v
1P
1U!
0S!
0w
1V!
#32000
0"
0j
0k
1I
#33000
1"
1j
1k
0I
0w#
0x#
1t#
0u#
0v#
1`#
1w!
1]!
1P!
1u!
0O!
1S
1W!
0U!
1T!
1R!
0Q!
1T
1q
0m
0T
1v!
0u!
1t!
1X!
0V!
0W!
1U!
1S!
0R!
1N!
0s
0r
0N!
0v!
1Y!
0X!
1V!
0S!
1u
0t
0Y!
0v
0P
1w
#34000
0"
0j
0k
1I
#35000
1"
1j
1k
0I
1x#
1\#
0^#
0_#
0`#
0]#
0w!
1O!
0S
1x
0w
1)!
0u
1t
1s
1r
0q
1m
1v
1P
1u!
0t!
1y
0P
0t
0r
0x
1w
1v!
0y
#36000
0"
0j
0k
1I
#37000
1"
1j
1k
0I
1w#
0x#
1`#
0P!
0u!
0O!
1S
1q
0m
1T
0v!
1P!
1u!
1t!
1r
1N!
0T
1v!
0N!
#38000
0"
0j
0k
1I
#39000
1"
1j
1k
0I
1x#
1_#
0`#
1O!
0S
0s
0r
0q
1m
0P!
0u!
0t!
1t
1s
1r
1T
0v!
0t
1N!
#40000
0"
0j
0k
1I
#41000
1"
1j
1k
0I
0w#
0x#
1v#
1`#
1w!
1P!
1u!
0O!
1S
1Q!
0T
1q
0m
0Q!
1T
1v!
0u!
1t!
1R!
0N!
0s
0r
0R!
1N!
0v!
1S!
1t
0S!
#42000
0"
0j
0k
1I
#43000
1"
1j
1k
0I
1x#
1^#
0_#
0`#
0w!
1O!
0S
1u
0t
1s
1r
0q
1m
1u!
0t!
1P
0u
1t
0r
1v!
0P
#44000
0"
0j
0k
1I
#45000
1"
1j
1k
0I
1w#
0x#
1`#
0P!
0u!
0O!
1S
1q
0m
1Q!
0T
0v!
1P!
1u!
1t!
1r
1R!
0N!
0Q!
1T
1v!
1S!
0R!
1N!
0S!
#46000
0"
0j
0k
1I
#47000
1"
1j
1k
0I
1x#
1_#
0`#
0]!
1O!
0S
0s
0r
0q
1m
0P!
0u!
0t!
1u
0t
1s
1r
1Q!
0T
0v!
1P
0u
1t
1R!
0N!
0P
1S!
#48000
0"
0j
0k
1I
#49000
1"
1j
1k
0I
0w#
0x#
1u#
0v#
1`#
1w!
1P!
1u!
0O!
1S
0T!
0R!
0Q!
1T
0)!
1q
0m
0T
1v!
0u!
1t!
1W!
0U!
0S!
1T!
1R!
1N!
0s
0r
0N!
0v!
1X!
0V!
0W!
1U!
1S!
1u
0t
1Y!
0X!
1V!
1P
0Y!
#50000
0'
0"
0K!
0j
0k
1I
#51000
1"
1j
1k
0I
1x#
0^#
0_#
0`#
1]#
0w!
1O!
0S
0u
1t
1s
1r
0q
1m
0v
0P
1u!
0t!
1v
1P
0t
0r
1x
0w
1v!
0x
1w
1y
0y
#52000
0"
0j
0k
1I
